<?xml version="1.0" encoding="iso-8859-1"?>
<!-- Generator: Adobe Illustrator 19.0.0, SVG Export Plug-In . SVG Version: 6.00 Build 0)  -->
<svg version="1.1" id="Capa_1" xmlns="http://www.w3.org/2000/svg" xmlns:xlink="http://www.w3.org/1999/xlink" x="0px" y="0px"
	 viewBox="0 0 512.001 512.001" style="enable-background:new 0 0 512.001 512.001;" xml:space="preserve">
<g>
	<g>
		<path d="M340.602,13.786c11.711,20.81,20.715,44.083,27.638,67.134c14.787-8.453,28.646-18.614,41.32-30.356
			C388.459,34.724,365.236,22.368,340.602,13.786z"/>
	</g>
</g>
<g>
	<g>
		<path d="M163.773,123.507c-7.851,35.951-12.409,75.844-13.295,117.467h90.495V140.182h0.001
			C214.518,138.624,188.399,132.969,163.773,123.507z"/>
	</g>
</g>
<g>
	<g>
		<path d="M150.479,271.026c0.885,41.595,5.438,81.461,13.279,117.392c24.413-9.38,50.409-15.057,77.216-16.605V271.026H150.479z"/>
	</g>
</g>
<g>
	<g>
		<path d="M432.611,70.059c-16.906,16.044-35.972,29.832-56.467,40.733c9.184,39.723,14.492,84.028,15.439,130.182H512
			C508.34,177.217,481.28,116.345,432.611,70.059z"/>
	</g>
</g>
<g>
	<g>
		<path d="M271.026,271.026v100.786c26.807,1.549,52.803,7.225,77.217,16.606c7.841-35.931,12.394-75.797,13.278-117.392H271.026z"
			/>
	</g>
</g>
<g>
	<g>
		<path d="M391.583,271.026c-0.946,46.121-6.248,90.395-15.419,130.096c20.52,10.876,39.544,24.555,56.531,40.741
			c47.52-45.233,75.561-105.599,79.306-170.837H391.583z"/>
	</g>
</g>
<g>
	<g>
		<path d="M79.394,70.055c-1.593,1.515-3.17,3.05-4.73,4.61C29.787,119.541,3.608,178.125,0,240.974h120.417
			c0.947-46.156,6.256-90.462,15.44-130.186C115.319,99.876,96.287,86.1,79.394,70.055z"/>
	</g>
</g>
<g>
	<g>
		<path d="M120.417,271.026H0c3.744,65.23,31.78,125.599,79.306,170.837c16.987-16.186,36.012-29.865,56.531-40.741
			C126.665,361.421,121.364,317.148,120.417,271.026z"/>
	</g>
</g>
<g>
	<g>
		<path d="M348.233,123.538c-24.696,9.554-50.537,15.145-77.207,16.663v100.773h90.495
			C360.636,199.363,356.08,159.481,348.233,123.538z"/>
	</g>
</g>
<g>
	<g>
		<path d="M271.026,401.92V512c8.66-0.497,17.238-1.424,25.711-2.769c20.865-24.136,35.26-60.749,44.099-91.416
			C318.833,408.946,295.317,403.512,271.026,401.92z"/>
	</g>
</g>
<g>
	<g>
		<path d="M368.24,431.079c-6.923,23.052-15.926,46.325-27.638,67.135c24.647-8.587,47.883-20.952,68.993-36.806
			C396.948,449.704,383.07,439.544,368.24,431.079z"/>
	</g>
</g>
<g>
	<g>
		<path d="M171.164,417.815c8.833,30.648,23.227,67.272,44.099,91.417c8.473,1.345,17.051,2.272,25.711,2.769V401.92
			C216.683,403.512,193.167,408.946,171.164,417.815z"/>
	</g>
</g>
<g>
	<g>
		<path d="M102.483,50.533c12.584,11.614,26.464,21.811,41.302,30.305c6.872-22.867,15.856-46.162,27.613-67.052
			C146.781,22.363,123.572,34.707,102.483,50.533z"/>
	</g>
</g>
<g>
	<g>
		<path d="M215.263,2.769c-20.817,24.08-35.214,60.606-44.078,91.342c22.18,8.938,45.808,14.349,69.789,15.947V0
			C232.314,0.497,223.736,1.424,215.263,2.769z"/>
	</g>
</g>
<g>
	<g>
		<path d="M296.737,2.769C288.264,1.424,279.686,0.497,271.026,0v110.067c24.28-1.583,47.788-6.991,69.813-15.87
			C332.004,63.539,317.608,26.913,296.737,2.769z"/>
	</g>
</g>
<g>
	<g>
		<path d="M143.76,431.079c-14.83,8.465-28.708,18.624-41.355,30.329c21.11,15.854,44.346,28.218,68.993,36.806
			C159.686,477.404,150.683,454.132,143.76,431.079z"/>
	</g>
</g>
<g>
</g>
<g>
</g>
<g>
</g>
<g>
</g>
<g>
</g>
<g>
</g>
<g>
</g>
<g>
</g>
<g>
</g>
<g>
</g>
<g>
</g>
<g>
</g>
<g>
</g>
<g>
</g>
<g>
</g>
</svg>
